[
	{
		"id": "07644e35-ad65-4091-b627-1244daf17869",
		"deleted": false,
		"status": "ENABLED",
		"slug": "jane-doe",
		"email": "jane@joe.tld",
		"screenname": "Jane",
		"firstname": "Jane",
		"lastname": "Doe",
		"alias": "Jane",
		"entity": null,
		"description": null,
		"quote": null,
		"social_networks": {"twitter": "@janedoe"},
		"photo": null,
		"photo_credits": null,
		"attributes": {}
	},
	{
		"id": "4d6f93c7-22f9-412c-ae03-870cfcdbe025",
		"deleted": false,
		"status": "DISABLED",
		"slug": "john-doe",
		"email": "john@joe.tld",
		"screenname": "John",
		"firstname": "John",
		"lastname": "Doe",
		"alias": "John",
		"entity": null,
		"description": null,
		"quote": null,
		"social_networks": {"twitter": "@johndoe"},
		"photo": null,
		"photo_credits": null,
		"attributes": {}
	}
]
